{"type":"Question","id":"https://friends.grishka.me/posts/54642","attributedTo":"https://friends.grishka.me/users/1","content":"<p>здесь тоже можно что-то написать отдельно от опроса</p>","published":"2021-09-04T00:22:16Z","url":"https://friends.grishka.me/posts/54642","to":["https://www.w3.org/ns/activitystreams#Public"],"cc":["https://friends.grishka.me/users/1/followers"],"replies":{"type":"Collection","id":"https://friends.grishka.me/posts/54642/replies","first":{"type":"CollectionPage","items":[],"partOf":"https://friends.grishka.me/posts/54642/replies","next":"https://friends.grishka.me/posts/54642/replies?page=1"}},"sensitive":false,"likes":"https://friends.grishka.me/posts/54642/likes","name":"тестовый опрос","oneOf":[{"type":"Note","id":"https://friends.grishka.me/posts/54642#options/76","name":"тестовый ответ 1","replies":{"type":"Collection","id":"https://friends.grishka.me/activitypub/objects/polls/24/options/76/votes","totalItems":4,"items":[]}},{"type":"Note","id":"https://friends.grishka.me/posts/54642#options/77","name":"тестовый ответ 2","replies":{"type":"Collection","id":"https://friends.grishka.me/activitypub/objects/polls/24/options/77/votes","totalItems":4,"items":[]}},{"type":"Note","id":"https://friends.grishka.me/posts/54642#options/78","name":"тестовый ответ 3","replies":{"type":"Collection","id":"https://friends.grishka.me/activitypub/objects/polls/24/options/78/votes","totalItems":6,"items":[]}}],"votersCount":14,"nonAnonymous":true,"@context":["https://www.w3.org/ns/activitystreams",{"sensitive":"as:sensitive","toot":"http://joinmastodon.org/ns#","sm":"http://smithereen.software/ns#","votersCount":"toot:votersCount","nonAnonymous":"sm:nonAnonymous"}]}