{"@context":"https://www.w3.org/ns/activitystreams","id":"http://localhost:4001/users/masto_closed/followers?page=1","type":"OrderedCollectionPage","totalItems":437,"next":"http://localhost:4001/users/masto_closed/followers?page=2","partOf":"http://localhost:4001/users/masto_closed/followers","orderedItems":["https://testing.uguu.ltd/users/rin","https://patch.cx/users/rin","https://letsalllovela.in/users/xoxo","https://pleroma.site/users/crushv","https://aria.company/users/boris","https://kawen.space/users/crushv","https://freespeech.host/users/cvcvcv","https://pleroma.site/users/picpub","https://pixelfed.social/users/nosleep","https://boopsnoot.gq/users/5c1896d162f7d337f90492a3","https://pikachu.rocks/users/waifu","https://royal.crablettesare.life/users/crablettes"]}
